%YAML 1.1
%TAG !u! tag:unity3d.com,2011:
--- !u!136 &5765311512369551329
CapsuleCollider:
  m_ObjectHideFlags: 0
  m_CorrespondingSourceObject: {fileID: 0}
  m_PrefabInstance: {fileID: 0}
  m_PrefabAsset: {fileID: 0}
  m_GameObject: {fileID: 6928864866522854770}
  m_Material: {fileID: 0}
  m_IsTrigger: 0
  m_Enabled: 1
  m_Radius: 0.13
  m_Height: 0.22
  m_Direction: 1
  m_Center: {x: 0, y: 0, z: 0.10496059}
--- !u!1001 &7847852424529856547
PrefabInstance:
  m_ObjectHideFlags: 0
  serializedVersion: 2
  m_Modification:
    m_TransformParent: {fileID: 0}
    m_Modifications:
    - target: {fileID: -8679921383154817045, guid: 8f0717330658328419f5fd8eebdebf02,
        type: 3}
      propertyPath: m_LocalPosition.x
      value: -0.8582912
      objectReference: {fileID: 0}
    - target: {fileID: -8679921383154817045, guid: 8f0717330658328419f5fd8eebdebf02,
        type: 3}
      propertyPath: m_LocalPosition.y
      value: 0.1155839
      objectReference: {fileID: 0}
    - target: {fileID: -8679921383154817045, guid: 8f0717330658328419f5fd8eebdebf02,
        type: 3}
      propertyPath: m_LocalPosition.z
      value: 4.645289
      objectReference: {fileID: 0}
    - target: {fileID: -8679921383154817045, guid: 8f0717330658328419f5fd8eebdebf02,
        type: 3}
      propertyPath: m_LocalRotation.x
      value: -0.7071068
      objectReference: {fileID: 0}
    - target: {fileID: -8679921383154817045, guid: 8f0717330658328419f5fd8eebdebf02,
        type: 3}
      propertyPath: m_LocalRotation.y
      value: 0
      objectReference: {fileID: 0}
    - target: {fileID: -8679921383154817045, guid: 8f0717330658328419f5fd8eebdebf02,
        type: 3}
      propertyPath: m_LocalRotation.z
      value: -0
      objectReference: {fileID: 0}
    - target: {fileID: -8679921383154817045, guid: 8f0717330658328419f5fd8eebdebf02,
        type: 3}
      propertyPath: m_LocalRotation.w
      value: 0.7071067
      objectReference: {fileID: 0}
    - target: {fileID: -8679921383154817045, guid: 8f0717330658328419f5fd8eebdebf02,
        type: 3}
      propertyPath: m_RootOrder
      value: 0
      objectReference: {fileID: 0}
    - target: {fileID: -8679921383154817045, guid: 8f0717330658328419f5fd8eebdebf02,
        type: 3}
      propertyPath: m_LocalEulerAnglesHint.x
      value: 0
      objectReference: {fileID: 0}
    - target: {fileID: -8679921383154817045, guid: 8f0717330658328419f5fd8eebdebf02,
        type: 3}
      propertyPath: m_LocalEulerAnglesHint.y
      value: 0
      objectReference: {fileID: 0}
    - target: {fileID: -8679921383154817045, guid: 8f0717330658328419f5fd8eebdebf02,
        type: 3}
      propertyPath: m_LocalEulerAnglesHint.z
      value: 0
      objectReference: {fileID: 0}
    - target: {fileID: 919132149155446097, guid: 8f0717330658328419f5fd8eebdebf02,
        type: 3}
      propertyPath: m_Name
      value: ToiletPaper Variant
      objectReference: {fileID: 0}
    m_RemovedComponents: []
  m_SourcePrefab: {fileID: 100100000, guid: 8f0717330658328419f5fd8eebdebf02, type: 3}
--- !u!1 &6928864866522854770 stripped
GameObject:
  m_CorrespondingSourceObject: {fileID: 919132149155446097, guid: 8f0717330658328419f5fd8eebdebf02,
    type: 3}
  m_PrefabInstance: {fileID: 7847852424529856547}
  m_PrefabAsset: {fileID: 0}
