%YAML 1.1
%TAG !u! tag:unity3d.com,2011:
--- !u!54 &5415647208884213193
Rigidbody:
  m_ObjectHideFlags: 0
  m_CorrespondingSourceObject: {fileID: 0}
  m_PrefabInstance: {fileID: 0}
  m_PrefabAsset: {fileID: 0}
  m_GameObject: {fileID: 1575300152928621354}
  serializedVersion: 2
  m_Mass: 1
  m_Drag: 0
  m_AngularDrag: 0.05
  m_UseGravity: 1
  m_IsKinematic: 0
  m_Interpolate: 0
  m_Constraints: 0
  m_CollisionDetection: 0
--- !u!64 &7922997598655253160
MeshCollider:
  m_ObjectHideFlags: 0
  m_CorrespondingSourceObject: {fileID: 0}
  m_PrefabInstance: {fileID: 0}
  m_PrefabAsset: {fileID: 0}
  m_GameObject: {fileID: 1575300152928621354}
  m_Material: {fileID: 0}
  m_IsTrigger: 0
  m_Enabled: 1
  serializedVersion: 4
  m_Convex: 1
  m_CookingOptions: 30
  m_Mesh: {fileID: 3982029085861368044, guid: 256b550a1f039cf4b927c4fb5b8e9c56, type: 3}
--- !u!1001 &1809882955269598843
PrefabInstance:
  m_ObjectHideFlags: 0
  serializedVersion: 2
  m_Modification:
    m_TransformParent: {fileID: 0}
    m_Modifications:
    - target: {fileID: -8679921383154817045, guid: 256b550a1f039cf4b927c4fb5b8e9c56,
        type: 3}
      propertyPath: m_LocalPosition.x
      value: -3.3756638
      objectReference: {fileID: 0}
    - target: {fileID: -8679921383154817045, guid: 256b550a1f039cf4b927c4fb5b8e9c56,
        type: 3}
      propertyPath: m_LocalPosition.y
      value: 0.13069367
      objectReference: {fileID: 0}
    - target: {fileID: -8679921383154817045, guid: 256b550a1f039cf4b927c4fb5b8e9c56,
        type: 3}
      propertyPath: m_LocalPosition.z
      value: 0.39595354
      objectReference: {fileID: 0}
    - target: {fileID: -8679921383154817045, guid: 256b550a1f039cf4b927c4fb5b8e9c56,
        type: 3}
      propertyPath: m_LocalRotation.x
      value: 0.0017658699
      objectReference: {fileID: 0}
    - target: {fileID: -8679921383154817045, guid: 256b550a1f039cf4b927c4fb5b8e9c56,
        type: 3}
      propertyPath: m_LocalRotation.y
      value: 0.004506379
      objectReference: {fileID: 0}
    - target: {fileID: -8679921383154817045, guid: 256b550a1f039cf4b927c4fb5b8e9c56,
        type: 3}
      propertyPath: m_LocalRotation.z
      value: 0.0012546087
      objectReference: {fileID: 0}
    - target: {fileID: -8679921383154817045, guid: 256b550a1f039cf4b927c4fb5b8e9c56,
        type: 3}
      propertyPath: m_LocalRotation.w
      value: 0.99998754
      objectReference: {fileID: 0}
    - target: {fileID: -8679921383154817045, guid: 256b550a1f039cf4b927c4fb5b8e9c56,
        type: 3}
      propertyPath: m_RootOrder
      value: 0
      objectReference: {fileID: 0}
    - target: {fileID: -8679921383154817045, guid: 256b550a1f039cf4b927c4fb5b8e9c56,
        type: 3}
      propertyPath: m_LocalEulerAnglesHint.x
      value: 0
      objectReference: {fileID: 0}
    - target: {fileID: -8679921383154817045, guid: 256b550a1f039cf4b927c4fb5b8e9c56,
        type: 3}
      propertyPath: m_LocalEulerAnglesHint.y
      value: 0
      objectReference: {fileID: 0}
    - target: {fileID: -8679921383154817045, guid: 256b550a1f039cf4b927c4fb5b8e9c56,
        type: 3}
      propertyPath: m_LocalEulerAnglesHint.z
      value: 0
      objectReference: {fileID: 0}
    - target: {fileID: -7511558181221131132, guid: 256b550a1f039cf4b927c4fb5b8e9c56,
        type: 3}
      propertyPath: m_Materials.Array.data[0]
      value: 
      objectReference: {fileID: 2100000, guid: 26d958a1b768e644299272f2e0db1063, type: 2}
    - target: {fileID: 919132149155446097, guid: 256b550a1f039cf4b927c4fb5b8e9c56,
        type: 3}
      propertyPath: m_Name
      value: CanBroken1 Variant
      objectReference: {fileID: 0}
    m_RemovedComponents: []
  m_SourcePrefab: {fileID: 100100000, guid: 256b550a1f039cf4b927c4fb5b8e9c56, type: 3}
--- !u!1 &1575300152928621354 stripped
GameObject:
  m_CorrespondingSourceObject: {fileID: 919132149155446097, guid: 256b550a1f039cf4b927c4fb5b8e9c56,
    type: 3}
  m_PrefabInstance: {fileID: 1809882955269598843}
  m_PrefabAsset: {fileID: 0}
