%YAML 1.1
%TAG !u! tag:unity3d.com,2011:
--- !u!54 &2488059857803059846
Rigidbody:
  m_ObjectHideFlags: 0
  m_CorrespondingSourceObject: {fileID: 0}
  m_PrefabInstance: {fileID: 0}
  m_PrefabAsset: {fileID: 0}
  m_GameObject: {fileID: 2454145985609458322}
  serializedVersion: 2
  m_Mass: 1
  m_Drag: 0
  m_AngularDrag: 0.05
  m_UseGravity: 1
  m_IsKinematic: 0
  m_Interpolate: 0
  m_Constraints: 0
  m_CollisionDetection: 0
--- !u!64 &7099299954397303268
MeshCollider:
  m_ObjectHideFlags: 0
  m_CorrespondingSourceObject: {fileID: 0}
  m_PrefabInstance: {fileID: 0}
  m_PrefabAsset: {fileID: 0}
  m_GameObject: {fileID: 2454145985609458322}
  m_Material: {fileID: 0}
  m_IsTrigger: 0
  m_Enabled: 1
  serializedVersion: 4
  m_Convex: 1
  m_CookingOptions: 30
  m_Mesh: {fileID: 9022096357871137338, guid: 0417c490355abac4eaa2e68dd0235535, type: 3}
--- !u!1001 &3373065367453622211
PrefabInstance:
  m_ObjectHideFlags: 0
  serializedVersion: 2
  m_Modification:
    m_TransformParent: {fileID: 0}
    m_Modifications:
    - target: {fileID: -8679921383154817045, guid: 0417c490355abac4eaa2e68dd0235535,
        type: 3}
      propertyPath: m_LocalPosition.x
      value: -1.7950361
      objectReference: {fileID: 0}
    - target: {fileID: -8679921383154817045, guid: 0417c490355abac4eaa2e68dd0235535,
        type: 3}
      propertyPath: m_LocalPosition.y
      value: 1.1536486
      objectReference: {fileID: 0}
    - target: {fileID: -8679921383154817045, guid: 0417c490355abac4eaa2e68dd0235535,
        type: 3}
      propertyPath: m_LocalPosition.z
      value: -0.47914982
      objectReference: {fileID: 0}
    - target: {fileID: -8679921383154817045, guid: 0417c490355abac4eaa2e68dd0235535,
        type: 3}
      propertyPath: m_LocalRotation.x
      value: 0
      objectReference: {fileID: 0}
    - target: {fileID: -8679921383154817045, guid: 0417c490355abac4eaa2e68dd0235535,
        type: 3}
      propertyPath: m_LocalRotation.y
      value: -0
      objectReference: {fileID: 0}
    - target: {fileID: -8679921383154817045, guid: 0417c490355abac4eaa2e68dd0235535,
        type: 3}
      propertyPath: m_LocalRotation.z
      value: -0
      objectReference: {fileID: 0}
    - target: {fileID: -8679921383154817045, guid: 0417c490355abac4eaa2e68dd0235535,
        type: 3}
      propertyPath: m_LocalRotation.w
      value: 1
      objectReference: {fileID: 0}
    - target: {fileID: -8679921383154817045, guid: 0417c490355abac4eaa2e68dd0235535,
        type: 3}
      propertyPath: m_RootOrder
      value: 0
      objectReference: {fileID: 0}
    - target: {fileID: -8679921383154817045, guid: 0417c490355abac4eaa2e68dd0235535,
        type: 3}
      propertyPath: m_LocalEulerAnglesHint.x
      value: 0
      objectReference: {fileID: 0}
    - target: {fileID: -8679921383154817045, guid: 0417c490355abac4eaa2e68dd0235535,
        type: 3}
      propertyPath: m_LocalEulerAnglesHint.y
      value: 0
      objectReference: {fileID: 0}
    - target: {fileID: -8679921383154817045, guid: 0417c490355abac4eaa2e68dd0235535,
        type: 3}
      propertyPath: m_LocalEulerAnglesHint.z
      value: 0
      objectReference: {fileID: 0}
    - target: {fileID: -7511558181221131132, guid: 0417c490355abac4eaa2e68dd0235535,
        type: 3}
      propertyPath: m_Materials.Array.data[0]
      value: 
      objectReference: {fileID: 2100000, guid: 26d958a1b768e644299272f2e0db1063, type: 2}
    - target: {fileID: 919132149155446097, guid: 0417c490355abac4eaa2e68dd0235535,
        type: 3}
      propertyPath: m_Name
      value: FrameRecord Variant
      objectReference: {fileID: 0}
    m_RemovedComponents: []
  m_SourcePrefab: {fileID: 100100000, guid: 0417c490355abac4eaa2e68dd0235535, type: 3}
--- !u!1 &2454145985609458322 stripped
GameObject:
  m_CorrespondingSourceObject: {fileID: 919132149155446097, guid: 0417c490355abac4eaa2e68dd0235535,
    type: 3}
  m_PrefabInstance: {fileID: 3373065367453622211}
  m_PrefabAsset: {fileID: 0}
