%YAML 1.1
%TAG !u! tag:unity3d.com,2011:
--- !u!54 &566575635935259184
Rigidbody:
  m_ObjectHideFlags: 0
  m_CorrespondingSourceObject: {fileID: 0}
  m_PrefabInstance: {fileID: 0}
  m_PrefabAsset: {fileID: 0}
  m_GameObject: {fileID: 1449818072386520237}
  serializedVersion: 2
  m_Mass: 50
  m_Drag: 0
  m_AngularDrag: 0.05
  m_UseGravity: 1
  m_IsKinematic: 0
  m_Interpolate: 0
  m_Constraints: 0
  m_CollisionDetection: 0
--- !u!64 &-239941015010185201
MeshCollider:
  m_ObjectHideFlags: 0
  m_CorrespondingSourceObject: {fileID: 0}
  m_PrefabInstance: {fileID: 0}
  m_PrefabAsset: {fileID: 0}
  m_GameObject: {fileID: 1449818072386520237}
  m_Material: {fileID: 0}
  m_IsTrigger: 0
  m_Enabled: 1
  serializedVersion: 4
  m_Convex: 1
  m_CookingOptions: 30
  m_Mesh: {fileID: -2096794972710530699, guid: 26f0feaf278f2b04fb7b61fa53d14d05, type: 3}
--- !u!1001 &1792327146317249020
PrefabInstance:
  m_ObjectHideFlags: 0
  serializedVersion: 2
  m_Modification:
    m_TransformParent: {fileID: 0}
    m_Modifications:
    - target: {fileID: -8679921383154817045, guid: 26f0feaf278f2b04fb7b61fa53d14d05,
        type: 3}
      propertyPath: m_LocalPosition.x
      value: 3.45
      objectReference: {fileID: 0}
    - target: {fileID: -8679921383154817045, guid: 26f0feaf278f2b04fb7b61fa53d14d05,
        type: 3}
      propertyPath: m_LocalPosition.y
      value: 0.52
      objectReference: {fileID: 0}
    - target: {fileID: -8679921383154817045, guid: 26f0feaf278f2b04fb7b61fa53d14d05,
        type: 3}
      propertyPath: m_LocalPosition.z
      value: 3.75
      objectReference: {fileID: 0}
    - target: {fileID: -8679921383154817045, guid: 26f0feaf278f2b04fb7b61fa53d14d05,
        type: 3}
      propertyPath: m_LocalRotation.x
      value: -0.29966095
      objectReference: {fileID: 0}
    - target: {fileID: -8679921383154817045, guid: 26f0feaf278f2b04fb7b61fa53d14d05,
        type: 3}
      propertyPath: m_LocalRotation.y
      value: 0.35867274
      objectReference: {fileID: 0}
    - target: {fileID: -8679921383154817045, guid: 26f0feaf278f2b04fb7b61fa53d14d05,
        type: 3}
      propertyPath: m_LocalRotation.z
      value: 0.50403935
      objectReference: {fileID: 0}
    - target: {fileID: -8679921383154817045, guid: 26f0feaf278f2b04fb7b61fa53d14d05,
        type: 3}
      propertyPath: m_LocalRotation.w
      value: 0.7262931
      objectReference: {fileID: 0}
    - target: {fileID: -8679921383154817045, guid: 26f0feaf278f2b04fb7b61fa53d14d05,
        type: 3}
      propertyPath: m_RootOrder
      value: 0
      objectReference: {fileID: 0}
    - target: {fileID: -8679921383154817045, guid: 26f0feaf278f2b04fb7b61fa53d14d05,
        type: 3}
      propertyPath: m_LocalEulerAnglesHint.x
      value: -52.831
      objectReference: {fileID: 0}
    - target: {fileID: -8679921383154817045, guid: 26f0feaf278f2b04fb7b61fa53d14d05,
        type: 3}
      propertyPath: m_LocalEulerAnglesHint.y
      value: 21.245
      objectReference: {fileID: 0}
    - target: {fileID: -8679921383154817045, guid: 26f0feaf278f2b04fb7b61fa53d14d05,
        type: 3}
      propertyPath: m_LocalEulerAnglesHint.z
      value: 58.876003
      objectReference: {fileID: 0}
    - target: {fileID: -7511558181221131132, guid: 26f0feaf278f2b04fb7b61fa53d14d05,
        type: 3}
      propertyPath: m_Materials.Array.data[0]
      value: 
      objectReference: {fileID: 2100000, guid: 26d958a1b768e644299272f2e0db1063, type: 2}
    - target: {fileID: 919132149155446097, guid: 26f0feaf278f2b04fb7b61fa53d14d05,
        type: 3}
      propertyPath: m_Name
      value: Guitar Variant
      objectReference: {fileID: 0}
    m_RemovedComponents: []
  m_SourcePrefab: {fileID: 100100000, guid: 26f0feaf278f2b04fb7b61fa53d14d05, type: 3}
--- !u!1 &1449818072386520237 stripped
GameObject:
  m_CorrespondingSourceObject: {fileID: 919132149155446097, guid: 26f0feaf278f2b04fb7b61fa53d14d05,
    type: 3}
  m_PrefabInstance: {fileID: 1792327146317249020}
  m_PrefabAsset: {fileID: 0}
