%YAML 1.1
%TAG !u! tag:unity3d.com,2011:
--- !u!54 &3329051646712550781
Rigidbody:
  m_ObjectHideFlags: 0
  m_CorrespondingSourceObject: {fileID: 0}
  m_PrefabInstance: {fileID: 0}
  m_PrefabAsset: {fileID: 0}
  m_GameObject: {fileID: 7974420694026173796}
  serializedVersion: 2
  m_Mass: 1
  m_Drag: 0
  m_AngularDrag: 0.05
  m_UseGravity: 1
  m_IsKinematic: 0
  m_Interpolate: 0
  m_Constraints: 0
  m_CollisionDetection: 0
--- !u!65 &4948545256968038287
BoxCollider:
  m_ObjectHideFlags: 0
  m_CorrespondingSourceObject: {fileID: 0}
  m_PrefabInstance: {fileID: 0}
  m_PrefabAsset: {fileID: 0}
  m_GameObject: {fileID: 7974420694026173796}
  m_Material: {fileID: 0}
  m_IsTrigger: 0
  m_Enabled: 1
  serializedVersion: 2
  m_Size: {x: 0.66, y: 0.69, z: 0.1}
  m_Center: {x: 0, y: 0.34, z: 0}
--- !u!54 &6459838192060502568
Rigidbody:
  m_ObjectHideFlags: 0
  m_CorrespondingSourceObject: {fileID: 0}
  m_PrefabInstance: {fileID: 0}
  m_PrefabAsset: {fileID: 0}
  m_GameObject: {fileID: 9196666924695408779}
  serializedVersion: 2
  m_Mass: 2
  m_Drag: 0
  m_AngularDrag: 0.05
  m_UseGravity: 1
  m_IsKinematic: 0
  m_Interpolate: 0
  m_Constraints: 0
  m_CollisionDetection: 0
--- !u!65 &804168100449033749
BoxCollider:
  m_ObjectHideFlags: 0
  m_CorrespondingSourceObject: {fileID: 0}
  m_PrefabInstance: {fileID: 0}
  m_PrefabAsset: {fileID: 0}
  m_GameObject: {fileID: 9196666924695408779}
  m_Material: {fileID: 0}
  m_IsTrigger: 0
  m_Enabled: 1
  serializedVersion: 2
  m_Size: {x: 0.73, y: 0.75, z: 0.08}
  m_Center: {x: 0, y: 0.39, z: 0.03}
--- !u!59 &7274879629736029511
HingeJoint:
  m_ObjectHideFlags: 0
  m_CorrespondingSourceObject: {fileID: 0}
  m_PrefabInstance: {fileID: 0}
  m_PrefabAsset: {fileID: 0}
  m_GameObject: {fileID: 9196666924695408779}
  m_ConnectedBody: {fileID: 3329051646712550781}
  m_Anchor: {x: 0, y: 0, z: 0}
  m_Axis: {x: 1, y: 0, z: 0}
  m_AutoConfigureConnectedAnchor: 1
  m_ConnectedAnchor: {x: 0, y: -0.07745468, z: 0.007505783}
  m_UseSpring: 0
  m_Spring:
    spring: 0
    damper: 0
    targetPosition: 0
  m_UseMotor: 0
  m_Motor:
    targetVelocity: 0
    force: 0
    freeSpin: 0
  m_UseLimits: 1
  m_Limits:
    min: -19
    max: 70.12
    bounciness: 0
    bounceMinVelocity: 0.2
    contactDistance: 0
  m_BreakForce: Infinity
  m_BreakTorque: Infinity
  m_EnableCollision: 0
  m_EnablePreprocessing: 1
  m_MassScale: 1
  m_ConnectedMassScale: 1
--- !u!1001 &3566695641609924801
PrefabInstance:
  m_ObjectHideFlags: 0
  serializedVersion: 2
  m_Modification:
    m_TransformParent: {fileID: 0}
    m_Modifications:
    - target: {fileID: -8679921383154817045, guid: 32c44a0988b9a9547a2305e858514050,
        type: 3}
      propertyPath: m_LocalPosition.x
      value: 1.512
      objectReference: {fileID: 0}
    - target: {fileID: -8679921383154817045, guid: 32c44a0988b9a9547a2305e858514050,
        type: 3}
      propertyPath: m_LocalPosition.y
      value: 0.404
      objectReference: {fileID: 0}
    - target: {fileID: -8679921383154817045, guid: 32c44a0988b9a9547a2305e858514050,
        type: 3}
      propertyPath: m_LocalPosition.z
      value: -1.942
      objectReference: {fileID: 0}
    - target: {fileID: -8679921383154817045, guid: 32c44a0988b9a9547a2305e858514050,
        type: 3}
      propertyPath: m_LocalRotation.x
      value: 0
      objectReference: {fileID: 0}
    - target: {fileID: -8679921383154817045, guid: 32c44a0988b9a9547a2305e858514050,
        type: 3}
      propertyPath: m_LocalRotation.y
      value: 0
      objectReference: {fileID: 0}
    - target: {fileID: -8679921383154817045, guid: 32c44a0988b9a9547a2305e858514050,
        type: 3}
      propertyPath: m_LocalRotation.z
      value: 0
      objectReference: {fileID: 0}
    - target: {fileID: -8679921383154817045, guid: 32c44a0988b9a9547a2305e858514050,
        type: 3}
      propertyPath: m_LocalRotation.w
      value: 1
      objectReference: {fileID: 0}
    - target: {fileID: -8679921383154817045, guid: 32c44a0988b9a9547a2305e858514050,
        type: 3}
      propertyPath: m_RootOrder
      value: 0
      objectReference: {fileID: 0}
    - target: {fileID: -8679921383154817045, guid: 32c44a0988b9a9547a2305e858514050,
        type: 3}
      propertyPath: m_LocalEulerAnglesHint.x
      value: 0
      objectReference: {fileID: 0}
    - target: {fileID: -8679921383154817045, guid: 32c44a0988b9a9547a2305e858514050,
        type: 3}
      propertyPath: m_LocalEulerAnglesHint.y
      value: 0
      objectReference: {fileID: 0}
    - target: {fileID: -8679921383154817045, guid: 32c44a0988b9a9547a2305e858514050,
        type: 3}
      propertyPath: m_LocalEulerAnglesHint.z
      value: 0
      objectReference: {fileID: 0}
    - target: {fileID: -2639638324218457063, guid: 32c44a0988b9a9547a2305e858514050,
        type: 3}
      propertyPath: m_LocalRotation.x
      value: 0.7071068
      objectReference: {fileID: 0}
    - target: {fileID: -2639638324218457063, guid: 32c44a0988b9a9547a2305e858514050,
        type: 3}
      propertyPath: m_LocalRotation.y
      value: 0
      objectReference: {fileID: 0}
    - target: {fileID: -2639638324218457063, guid: 32c44a0988b9a9547a2305e858514050,
        type: 3}
      propertyPath: m_LocalRotation.z
      value: 0
      objectReference: {fileID: 0}
    - target: {fileID: -2639638324218457063, guid: 32c44a0988b9a9547a2305e858514050,
        type: 3}
      propertyPath: m_LocalRotation.w
      value: 0.7071068
      objectReference: {fileID: 0}
    - target: {fileID: -2639638324218457063, guid: 32c44a0988b9a9547a2305e858514050,
        type: 3}
      propertyPath: m_LocalEulerAnglesHint.x
      value: 90
      objectReference: {fileID: 0}
    - target: {fileID: -2639638324218457063, guid: 32c44a0988b9a9547a2305e858514050,
        type: 3}
      propertyPath: m_LocalEulerAnglesHint.y
      value: -0.000015258789
      objectReference: {fileID: 0}
    - target: {fileID: -2639638324218457063, guid: 32c44a0988b9a9547a2305e858514050,
        type: 3}
      propertyPath: m_LocalEulerAnglesHint.z
      value: -0.000015258789
      objectReference: {fileID: 0}
    - target: {fileID: 919132149155446097, guid: 32c44a0988b9a9547a2305e858514050,
        type: 3}
      propertyPath: m_Name
      value: pizzaboxBoned Variant
      objectReference: {fileID: 0}
    m_RemovedComponents: []
  m_SourcePrefab: {fileID: 100100000, guid: 32c44a0988b9a9547a2305e858514050, type: 3}
--- !u!1 &7974420694026173796 stripped
GameObject:
  m_CorrespondingSourceObject: {fileID: 6905609870639353253, guid: 32c44a0988b9a9547a2305e858514050,
    type: 3}
  m_PrefabInstance: {fileID: 3566695641609924801}
  m_PrefabAsset: {fileID: 0}
--- !u!1 &9196666924695408779 stripped
GameObject:
  m_CorrespondingSourceObject: {fileID: -3540272279435206582, guid: 32c44a0988b9a9547a2305e858514050,
    type: 3}
  m_PrefabInstance: {fileID: 3566695641609924801}
  m_PrefabAsset: {fileID: 0}
