%YAML 1.1
%TAG !u! tag:unity3d.com,2011:
--- !u!54 &-95032722558003436
Rigidbody:
  m_ObjectHideFlags: 0
  m_CorrespondingSourceObject: {fileID: 0}
  m_PrefabInstance: {fileID: 0}
  m_PrefabAsset: {fileID: 0}
  m_GameObject: {fileID: 5134572139024285687}
  serializedVersion: 2
  m_Mass: 5000
  m_Drag: 0
  m_AngularDrag: 0.05
  m_UseGravity: 1
  m_IsKinematic: 0
  m_Interpolate: 0
  m_Constraints: 0
  m_CollisionDetection: 0
--- !u!64 &1895118172579158576
MeshCollider:
  m_ObjectHideFlags: 0
  m_CorrespondingSourceObject: {fileID: 0}
  m_PrefabInstance: {fileID: 0}
  m_PrefabAsset: {fileID: 0}
  m_GameObject: {fileID: 5134572139024285687}
  m_Material: {fileID: 0}
  m_IsTrigger: 0
  m_Enabled: 1
  serializedVersion: 4
  m_Convex: 1
  m_CookingOptions: 30
  m_Mesh: {fileID: 7240493346068470835, guid: 6a7c5042934b0e14a88b95f106030b4a, type: 3}
--- !u!1001 &5440563827838403238
PrefabInstance:
  m_ObjectHideFlags: 0
  serializedVersion: 2
  m_Modification:
    m_TransformParent: {fileID: 0}
    m_Modifications:
    - target: {fileID: -8679921383154817045, guid: 6a7c5042934b0e14a88b95f106030b4a,
        type: 3}
      propertyPath: m_LocalPosition.x
      value: -5.35
      objectReference: {fileID: 0}
    - target: {fileID: -8679921383154817045, guid: 6a7c5042934b0e14a88b95f106030b4a,
        type: 3}
      propertyPath: m_LocalPosition.y
      value: 0.8
      objectReference: {fileID: 0}
    - target: {fileID: -8679921383154817045, guid: 6a7c5042934b0e14a88b95f106030b4a,
        type: 3}
      propertyPath: m_LocalPosition.z
      value: -1.45
      objectReference: {fileID: 0}
    - target: {fileID: -8679921383154817045, guid: 6a7c5042934b0e14a88b95f106030b4a,
        type: 3}
      propertyPath: m_LocalRotation.x
      value: -0
      objectReference: {fileID: 0}
    - target: {fileID: -8679921383154817045, guid: 6a7c5042934b0e14a88b95f106030b4a,
        type: 3}
      propertyPath: m_LocalRotation.y
      value: 0.9814974
      objectReference: {fileID: 0}
    - target: {fileID: -8679921383154817045, guid: 6a7c5042934b0e14a88b95f106030b4a,
        type: 3}
      propertyPath: m_LocalRotation.z
      value: -0
      objectReference: {fileID: 0}
    - target: {fileID: -8679921383154817045, guid: 6a7c5042934b0e14a88b95f106030b4a,
        type: 3}
      propertyPath: m_LocalRotation.w
      value: 0.19147544
      objectReference: {fileID: 0}
    - target: {fileID: -8679921383154817045, guid: 6a7c5042934b0e14a88b95f106030b4a,
        type: 3}
      propertyPath: m_RootOrder
      value: 0
      objectReference: {fileID: 0}
    - target: {fileID: -8679921383154817045, guid: 6a7c5042934b0e14a88b95f106030b4a,
        type: 3}
      propertyPath: m_LocalEulerAnglesHint.x
      value: 0
      objectReference: {fileID: 0}
    - target: {fileID: -8679921383154817045, guid: 6a7c5042934b0e14a88b95f106030b4a,
        type: 3}
      propertyPath: m_LocalEulerAnglesHint.y
      value: 157.92201
      objectReference: {fileID: 0}
    - target: {fileID: -8679921383154817045, guid: 6a7c5042934b0e14a88b95f106030b4a,
        type: 3}
      propertyPath: m_LocalEulerAnglesHint.z
      value: 0
      objectReference: {fileID: 0}
    - target: {fileID: -7511558181221131132, guid: 6a7c5042934b0e14a88b95f106030b4a,
        type: 3}
      propertyPath: m_Materials.Array.data[0]
      value: 
      objectReference: {fileID: 2100000, guid: 053f0e26de663f7448ded0605f26089f, type: 2}
    - target: {fileID: -7511558181221131132, guid: 6a7c5042934b0e14a88b95f106030b4a,
        type: 3}
      propertyPath: m_Materials.Array.data[1]
      value: 
      objectReference: {fileID: 2100000, guid: 82824016c536ad34b895f628fa9dc4df, type: 2}
    - target: {fileID: 919132149155446097, guid: 6a7c5042934b0e14a88b95f106030b4a,
        type: 3}
      propertyPath: m_Name
      value: TV Variant
      objectReference: {fileID: 0}
    m_RemovedComponents: []
  m_SourcePrefab: {fileID: 100100000, guid: 6a7c5042934b0e14a88b95f106030b4a, type: 3}
--- !u!1 &5134572139024285687 stripped
GameObject:
  m_CorrespondingSourceObject: {fileID: 919132149155446097, guid: 6a7c5042934b0e14a88b95f106030b4a,
    type: 3}
  m_PrefabInstance: {fileID: 5440563827838403238}
  m_PrefabAsset: {fileID: 0}
