%YAML 1.1
%TAG !u! tag:unity3d.com,2011:
--- !u!54 &2144277940546647700
Rigidbody:
  m_ObjectHideFlags: 0
  m_CorrespondingSourceObject: {fileID: 0}
  m_PrefabInstance: {fileID: 0}
  m_PrefabAsset: {fileID: 0}
  m_GameObject: {fileID: 1986370050151998728}
  serializedVersion: 2
  m_Mass: 1
  m_Drag: 0
  m_AngularDrag: 0.05
  m_UseGravity: 1
  m_IsKinematic: 0
  m_Interpolate: 0
  m_Constraints: 0
  m_CollisionDetection: 0
--- !u!65 &396187965450980669
BoxCollider:
  m_ObjectHideFlags: 0
  m_CorrespondingSourceObject: {fileID: 0}
  m_PrefabInstance: {fileID: 0}
  m_PrefabAsset: {fileID: 0}
  m_GameObject: {fileID: 1986370050151998728}
  m_Material: {fileID: 0}
  m_IsTrigger: 0
  m_Enabled: 1
  serializedVersion: 2
  m_Size: {x: 0.20656031, y: 0.29183424, z: 0.14869732}
  m_Center: {x: 0.0033350363, y: -0.03039788, z: -0.009997133}
--- !u!1001 &1679957940813289561
PrefabInstance:
  m_ObjectHideFlags: 0
  serializedVersion: 2
  m_Modification:
    m_TransformParent: {fileID: 0}
    m_Modifications:
    - target: {fileID: -8679921383154817045, guid: 2d0cb75e55e872141a095118b2d535e1,
        type: 3}
      propertyPath: m_LocalPosition.x
      value: -1.5102799
      objectReference: {fileID: 0}
    - target: {fileID: -8679921383154817045, guid: 2d0cb75e55e872141a095118b2d535e1,
        type: 3}
      propertyPath: m_LocalPosition.y
      value: 1.264
      objectReference: {fileID: 0}
    - target: {fileID: -8679921383154817045, guid: 2d0cb75e55e872141a095118b2d535e1,
        type: 3}
      propertyPath: m_LocalPosition.z
      value: 1.1564298
      objectReference: {fileID: 0}
    - target: {fileID: -8679921383154817045, guid: 2d0cb75e55e872141a095118b2d535e1,
        type: 3}
      propertyPath: m_LocalRotation.x
      value: 0
      objectReference: {fileID: 0}
    - target: {fileID: -8679921383154817045, guid: 2d0cb75e55e872141a095118b2d535e1,
        type: 3}
      propertyPath: m_LocalRotation.y
      value: -0
      objectReference: {fileID: 0}
    - target: {fileID: -8679921383154817045, guid: 2d0cb75e55e872141a095118b2d535e1,
        type: 3}
      propertyPath: m_LocalRotation.z
      value: -0
      objectReference: {fileID: 0}
    - target: {fileID: -8679921383154817045, guid: 2d0cb75e55e872141a095118b2d535e1,
        type: 3}
      propertyPath: m_LocalRotation.w
      value: 1
      objectReference: {fileID: 0}
    - target: {fileID: -8679921383154817045, guid: 2d0cb75e55e872141a095118b2d535e1,
        type: 3}
      propertyPath: m_RootOrder
      value: 0
      objectReference: {fileID: 0}
    - target: {fileID: -8679921383154817045, guid: 2d0cb75e55e872141a095118b2d535e1,
        type: 3}
      propertyPath: m_LocalEulerAnglesHint.x
      value: 0
      objectReference: {fileID: 0}
    - target: {fileID: -8679921383154817045, guid: 2d0cb75e55e872141a095118b2d535e1,
        type: 3}
      propertyPath: m_LocalEulerAnglesHint.y
      value: 0
      objectReference: {fileID: 0}
    - target: {fileID: -8679921383154817045, guid: 2d0cb75e55e872141a095118b2d535e1,
        type: 3}
      propertyPath: m_LocalEulerAnglesHint.z
      value: 0
      objectReference: {fileID: 0}
    - target: {fileID: -7511558181221131132, guid: 2d0cb75e55e872141a095118b2d535e1,
        type: 3}
      propertyPath: m_Materials.Array.data[0]
      value: 
      objectReference: {fileID: 2100000, guid: 9175fe518650ca244a491aca66b52a46, type: 2}
    - target: {fileID: 919132149155446097, guid: 2d0cb75e55e872141a095118b2d535e1,
        type: 3}
      propertyPath: m_Name
      value: ciggypack
      objectReference: {fileID: 0}
    m_RemovedComponents: []
  m_SourcePrefab: {fileID: 100100000, guid: 2d0cb75e55e872141a095118b2d535e1, type: 3}
--- !u!1 &1986370050151998728 stripped
GameObject:
  m_CorrespondingSourceObject: {fileID: 919132149155446097, guid: 2d0cb75e55e872141a095118b2d535e1,
    type: 3}
  m_PrefabInstance: {fileID: 1679957940813289561}
  m_PrefabAsset: {fileID: 0}
