%YAML 1.1
%TAG !u! tag:unity3d.com,2011:
--- !u!1001 &7145034392650610732
PrefabInstance:
  m_ObjectHideFlags: 0
  serializedVersion: 2
  m_Modification:
    m_TransformParent: {fileID: 0}
    m_Modifications:
    - target: {fileID: 7010879274224145777, guid: fbb74a7e53980b948979d1725264ad39,
        type: 3}
      propertyPath: m_Materials.Array.data[0]
      value: 
      objectReference: {fileID: 2100000, guid: a7bfd53108b8960438efbe1b9d86f08e, type: 2}
    - target: {fileID: 7290432384746502225, guid: fbb74a7e53980b948979d1725264ad39,
        type: 3}
      propertyPath: m_LocalPosition.x
      value: -0.433
      objectReference: {fileID: 0}
    - target: {fileID: 7290432384746502225, guid: fbb74a7e53980b948979d1725264ad39,
        type: 3}
      propertyPath: m_LocalPosition.y
      value: 0.425
      objectReference: {fileID: 0}
    - target: {fileID: 7290432384746502225, guid: fbb74a7e53980b948979d1725264ad39,
        type: 3}
      propertyPath: m_LocalPosition.z
      value: -0.836
      objectReference: {fileID: 0}
    - target: {fileID: 7290432384746502225, guid: fbb74a7e53980b948979d1725264ad39,
        type: 3}
      propertyPath: m_LocalRotation.x
      value: -0
      objectReference: {fileID: 0}
    - target: {fileID: 7290432384746502225, guid: fbb74a7e53980b948979d1725264ad39,
        type: 3}
      propertyPath: m_LocalRotation.y
      value: -0.49583608
      objectReference: {fileID: 0}
    - target: {fileID: 7290432384746502225, guid: fbb74a7e53980b948979d1725264ad39,
        type: 3}
      propertyPath: m_LocalRotation.z
      value: -0
      objectReference: {fileID: 0}
    - target: {fileID: 7290432384746502225, guid: fbb74a7e53980b948979d1725264ad39,
        type: 3}
      propertyPath: m_LocalRotation.w
      value: 0.8684162
      objectReference: {fileID: 0}
    - target: {fileID: 7290432384746502225, guid: fbb74a7e53980b948979d1725264ad39,
        type: 3}
      propertyPath: m_RootOrder
      value: 0
      objectReference: {fileID: 0}
    - target: {fileID: 7290432384746502225, guid: fbb74a7e53980b948979d1725264ad39,
        type: 3}
      propertyPath: m_LocalEulerAnglesHint.x
      value: 0
      objectReference: {fileID: 0}
    - target: {fileID: 7290432384746502225, guid: fbb74a7e53980b948979d1725264ad39,
        type: 3}
      propertyPath: m_LocalEulerAnglesHint.y
      value: -59.450005
      objectReference: {fileID: 0}
    - target: {fileID: 7290432384746502225, guid: fbb74a7e53980b948979d1725264ad39,
        type: 3}
      propertyPath: m_LocalEulerAnglesHint.z
      value: 0
      objectReference: {fileID: 0}
    - target: {fileID: 7290432384746502230, guid: fbb74a7e53980b948979d1725264ad39,
        type: 3}
      propertyPath: m_Name
      value: itemBeerCanMaster
      objectReference: {fileID: 0}
    m_RemovedComponents: []
  m_SourcePrefab: {fileID: 100100000, guid: fbb74a7e53980b948979d1725264ad39, type: 3}
